Division,WeightClassKg,Place,Name,Team,BodyweightKg,Best3SquatKg,Best3BenchKg,Best3DeadliftKg,TotalKg,Equipment,Event,Sex
Boys,51.71,1,Michael Smagghe,Fairfield,49.99,120.2,74.84,142.88,337.93,Single-ply,SBD,M
Boys,51.71,2,Uriel Rodriguez,Crawford,46.63,131.54,68.04,136.08,335.66,Single-ply,SBD,M
Boys,51.71,3,Dalton Wiethorn,West,51.53,99.79,56.7,104.33,260.82,Single-ply,SBD,M
Boys,51.71,4,Jacob Stanford,Riesel,51.35,92.99,47.63,95.25,235.87,Single-ply,SBD,M
Boys,55.79,5,Cody McQueen,Fairfield,51.8,86.18,38.56,99.79,224.53,Single-ply,SBD,M
Boys,55.79,1,Cody Villa,Crawford,54.7,142.88,97.52,195.04,435.45,Single-ply,SBD,M
Boys,55.79,2,Miguel Contreras,Robinson,55.16,163.29,74.84,163.29,401.43,Single-ply,SBD,M
Boys,55.79,3,Francisco Olguin,Waco Connally,55.34,122.47,61.23,117.93,301.64,Single-ply,SBD,M
Boys,55.79,DQ,Nemesis Robles,Mexia,52.8,88.45,,90.72,,Single-ply,SBD,M
Boys,59.87,1,Luis Juarez,Bosqueville,59.78,197.31,113.4,199.58,510.29,Single-ply,SBD,M
Boys,59.87,2,Adolfo Rodriguez,West,59.06,136.08,81.65,145.15,362.87,Single-ply,SBD,M
Boys,67.13,3,Nolan Jackson,Lorena,60.1,142.88,72.57,142.88,358.34,Single-ply,SBD,M
Boys,59.87,4,Brandon Putnam,Moody,59.78,102.06,81.65,111.13,294.84,Single-ply,SBD,M
Boys,59.87,5,Ivan Cruz,Moody,56.7,83.91,65.77,86.18,235.87,Single-ply,SBD,M
Boys,59.87,6,Gavin Williamson,Moody,57.24,74.84,56.7,102.06,233.6,Single-ply,SBD,M
Boys,59.87,7,Kyle Bonner,Fairfield,57.61,72.57,36.29,83.91,192.78,Single-ply,SBD,M
Boys,67.13,DQ,Blake Crain,Robinson,60.06,113.4,,,,Single-ply,SBD,M
Boys,67.13,DQ,Joseph Bryant,Waco La Vega,60.1,136.08,,129.27,,Single-ply,SBD,M
Boys,67.13,1,Dylan Haralson,Axtell,66.5,235.87,95.25,231.33,562.45,Single-ply,SBD,M
Boys,67.13,2,Manuel Rodriguez #4,Robinson,64.59,195.04,97.52,215.46,508.02,Single-ply,SBD,M
Boys,74.84,3,Gabe Cobos,Riesel,67.22,185.97,97.52,204.12,487.61,Single-ply,SBD,M
Boys,74.84,4,Kyle Jacobs,McGregor,67.22,170.1,129.27,183.7,483.08,Single-ply,SBD,M
Boys,67.13,5,James Davis,Waco Connally,63.14,181.44,104.33,190.51,476.27,Single-ply,SBD,M
Boys,67.13,6,Phillip Carpenter,Waco La Vega,64.23,188.24,81.65,192.78,462.66,Single-ply,SBD,M
Boys,67.13,7,Eduardo Jaimes,Riesel,66.77,199.58,99.79,158.76,458.13,Single-ply,SBD,M
Boys,67.13,8,Ty Mooney,McGregor,66.77,204.12,83.91,167.83,455.86,Single-ply,SBD,M
Boys,67.13,9,Devin Eggins,Fairfield,64.14,161.03,92.99,170.1,424.11,Single-ply,SBD,M
Boys,67.13,10,Marcus Howard,Waco Connally,63.41,163.29,74.84,181.44,419.57,Single-ply,SBD,M
Boys,67.13,11,Harley Eldridge,Waco Connally,65.59,151.95,88.45,167.83,408.23,Single-ply,SBD,M
Boys,67.13,12,Nate Seal,McGregor,65.59,142.88,102.06,163.29,408.23,Single-ply,SBD,M
Boys,67.13,13,Colton Bauer,Lorena,66.68,147.42,88.45,154.22,390.09,Single-ply,SBD,M
Boys,67.13,14,Lucas Steinkamp,Crawford,62.23,154.22,92.99,136.08,383.29,Single-ply,SBD,M
Boys,74.84,15,Sam Brock,China Spring,67.22,147.42,81.65,145.15,374.21,Single-ply,SBD,M
Boys,67.13,16,Nick Mooneyham,Fairfield,64.86,138.35,74.84,158.76,371.95,Single-ply,SBD,M
Boys,67.13,17,Simon Ruso,Waco La Vega,61.05,145.15,86.18,131.54,362.87,Single-ply,SBD,M
Boys,67.13,18,Nick Harris,Lorena,62.51,142.88,81.65,138.35,362.87,Single-ply,SBD,M
Boys,67.13,19,Noah Bleything,Crawford,66.95,138.35,72.57,149.69,360.61,Single-ply,SBD,M
Boys,67.13,20,Kelby Sultemeier,West,63.59,142.88,79.38,136.08,358.34,Single-ply,SBD,M
Boys,67.13,21,Ryan Lelenx,Groesbeck,64.23,117.93,83.91,156.49,358.34,Single-ply,SBD,M
Boys,67.13,22,Shannon Beamon,China Spring,65.68,129.27,70.31,149.69,349.27,Single-ply,SBD,M
Boys,67.13,23,Nick Snodgrass,China Spring,61.14,117.93,83.91,142.88,344.73,Single-ply,SBD,M
Boys,74.84,24,Patrick Gaither,China Spring,67.31,102.06,97.52,140.61,340.19,Single-ply,SBD,M
Boys,67.13,25,Josh Turner,McGregor,64.86,124.74,81.65,122.47,328.85,Single-ply,SBD,M
Boys,67.13,26,Cannon Montgomery,China Spring,62.6,115.67,72.57,136.08,324.32,Single-ply,SBD,M
Boys,67.13,27,Dustin Richter,Bosqueville,63.5,97.52,49.9,131.54,278.96,Single-ply,SBD,M
Boys,67.13,28,Mariano Perez,West,65.95,111.13,54.43,111.13,276.69,Single-ply,SBD,M
Boys,67.13,DQ,Trishawn Townes,Groesbeck,64.14,147.42,,147.42,,Single-ply,SBD,M
Boys,67.13,DQ,Dalton Dunnahoe,Wortham,66.5,,86.18,,,Single-ply,SBD,M
Boys,82.1,1,Marco Vasquez,Riesel,75.07,195.04,122.47,185.97,503.49,Single-ply,SBD,M
Boys,74.84,2,Barclay Brunson,Crawford,73.48,161.03,99.79,167.83,428.64,Single-ply,SBD,M
Boys,74.84,3,Alex Smith,Bosqueville,73.48,174.63,86.18,158.76,419.57,Single-ply,SBD,M
Boys,74.84,4,Billy Manolakis,West,70.49,154.22,104.33,158.76,417.3,Single-ply,SBD,M
Boys,74.84,5,Ethan Tapia,Robinson,70.22,158.76,92.99,161.03,412.77,Single-ply,SBD,M
Boys,74.84,6,John Botello,Lorena,70.67,142.88,92.99,170.1,405.97,Single-ply,SBD,M
Boys,74.84,7,John Werner,Bruceville-Eddy,68.31,142.88,97.52,161.03,401.43,Single-ply,SBD,M
Boys,74.84,8,Jeremy Grubbs,Robinson,67.68,140.61,77.11,170.1,387.82,Single-ply,SBD,M
Boys,74.84,9,Darius Dorsey,Mexia,70.67,142.88,97.52,147.42,387.82,Single-ply,SBD,M
Boys,74.84,10,Sydney Dominguez,McGregor,69.31,131.54,88.45,158.76,378.75,Single-ply,SBD,M
Boys,74.84,11,Christian Trigleth,Riesel,68.76,115.67,61.23,122.47,299.37,Single-ply,SBD,M
Boys,74.84,12,Spencer Fair,Fairfield,74.57,104.33,77.11,108.86,290.3,Single-ply,SBD,M
Boys,74.84,DQ,Lorenso Rodriguez,Bruceville-Eddy,71.21,136.08,,136.08,,Single-ply,SBD,M
Boys,74.84,DQ,JaColby Forge,Mexia,71.58,,79.38,158.76,,Single-ply,SBD,M
Boys,74.84,DQ,Ethan Shaw,Wortham,72.67,,56.7,,,Single-ply,SBD,M
Boys,74.84,DQ,Trey Copleland,Waco Connally,73.57,113.4,65.77,,,Single-ply,SBD,M
Boys,74.84,DQ,Zach Rankin,West,73.3,190.51,,190.51,,Single-ply,SBD,M
Boys,74.84,DQ,Reynard Smith,Waco La Vega,71.4,,104.33,201.85,,Single-ply,SBD,M
Boys,82.1,1,Brett Boles,McGregor,77.75,204.12,151.95,215.46,571.53,Single-ply,SBD,M
Boys,82.1,2,Edmond Marton,Axtell,79.11,217.72,113.4,226.8,557.92,Single-ply,SBD,M
Boys,82.1,3,Juan Villa,Robinson,77.93,204.12,136.08,204.12,544.31,Single-ply,SBD,M
Boys,82.1,4,Stevie Stoermer,West,81.92,176.9,106.59,190.51,474,Single-ply,SBD,M
Boys,82.1,5,Alex Parsons,McGregor,81.83,183.7,102.06,158.76,444.52,Single-ply,SBD,M
Boys,82.1,6,Alberto Carrillo,Mexia,78.83,142.88,111.13,185.97,439.98,Single-ply,SBD,M
Boys,82.1,7,Larry Reid,Robinson,79.47,165.56,108.86,165.56,439.98,Single-ply,SBD,M
Boys,82.1,8,James Brown,China Spring,81.56,156.49,102.06,181.44,439.98,Single-ply,SBD,M
Boys,82.1,9,Garrett Rolf,Robinson,77.93,154.22,90.72,170.1,415.04,Single-ply,SBD,M
Boys,82.1,10,Logan Willenborg,West,78.38,145.15,86.18,165.56,396.89,Single-ply,SBD,M
Boys,82.1,11,Montana Browder,Bruceville-Eddy,78.47,133.81,83.91,165.56,383.29,Single-ply,SBD,M
Boys,82.1,12,Cody Neal,Mexia,81.19,142.88,72.57,142.88,358.34,Single-ply,SBD,M
Boys,82.1,13,Kirk McCulloch,China Spring,79.38,136.08,79.38,131.54,347,Single-ply,SBD,M
Boys,89.81,14,Bryant Shuggart,Groesbeck,82.19,92.99,79.38,92.99,265.35,Single-ply,SBD,M
Boys,89.81,1,Brody Jones,Crawford,87.36,258.55,158.76,226.8,644.1,Single-ply,SBD,M
Boys,89.81,2,Tanner Coone,Axtell,88.54,195.04,131.54,190.51,517.1,Single-ply,SBD,M
Boys,89.81,3,Jeremiah Simpson,Fairfield,86.45,204.12,108.86,195.04,508.02,Single-ply,SBD,M
Boys,89.81,4,Dillon Van Zandt,Crawford,88.9,197.31,102.06,199.58,498.95,Single-ply,SBD,M
Boys,89.81,5,Dustin Brown,Waco La Vega,84.37,179.17,124.74,161.03,464.93,Single-ply,SBD,M
Boys,99.79,6,Clayton Carberry,Robinson,89.9,190.51,90.72,181.44,462.66,Single-ply,SBD,M
Boys,89.81,7,Michael Authenrieth,Waco Connally,83.55,181.44,95.25,176.9,453.59,Single-ply,SBD,M
Boys,99.79,8,Trevor Hoffman,Lorena,89.9,154.22,90.72,158.76,403.7,Single-ply,SBD,M
Boys,89.81,9,Preston Trevino,Lorena,87.63,156.49,79.38,163.29,399.16,Single-ply,SBD,M
Boys,89.81,10,Cory Nolen,Groesbeck,83.46,142.88,92.99,161.03,396.89,Single-ply,SBD,M
Boys,89.81,11,Chance Binder,Lorena,83.28,149.69,86.18,149.69,385.55,Single-ply,SBD,M
Boys,89.81,12,Erick Marton,Axtell,88.63,136.08,88.45,158.76,383.29,Single-ply,SBD,M
Boys,89.81,13,Blake Berger,Crawford,88.9,154.22,83.91,136.08,374.21,Single-ply,SBD,M
Boys,89.81,14,Brandon Amaya,Fairfield,87.27,140.61,83.91,142.88,367.41,Single-ply,SBD,M
Boys,89.81,15,Austin Todaro,Robinson,89.09,136.08,81.65,136.08,353.8,Single-ply,SBD,M
Boys,109.77,1,Kalil Washington,Robinson,100.02,213.19,149.69,226.8,589.67,Single-ply,SBD,M
Boys,99.79,2,Deoryen Thornton,Waco Connally,95.07,226.8,136.08,192.78,555.65,Single-ply,SBD,M
Boys,99.79,3,Taylor Hull,China Spring,92.71,201.85,136.08,204.12,542.04,Single-ply,SBD,M
Boys,99.79,4,Riley Allen,Robinson,98.16,210.92,131.54,190.51,532.97,Single-ply,SBD,M
Boys,109.77,5,Tyler Pustejovsky,West,99.88,208.65,115.67,208.65,532.97,Single-ply,SBD,M
Boys,99.79,6,Matt McNew,Robinson,95.35,190.51,127.01,199.58,517.1,Single-ply,SBD,M
Boys,99.79,7,Jamie Saucedo,Bosqueville,99.79,206.38,108.86,185.97,501.22,Single-ply,SBD,M
Boys,99.79,8,Corey Kemp,Waco La Vega,91.22,201.85,106.59,181.44,489.88,Single-ply,SBD,M
Boys,99.79,9,Jacob Trevino,Moody,99.43,176.9,113.4,183.7,474,Single-ply,SBD,M
Boys,99.79,10,Taylor Robinson,McGregor,95.89,167.83,129.27,142.88,439.98,Single-ply,SBD,M
Boys,99.79,11,Steven Frausto,Waco Connally,93.62,163.29,95.25,172.37,430.91,Single-ply,SBD,M
Boys,99.79,12,Marcus DeLeon,Waco Connally,93.17,158.76,104.33,142.88,405.97,Single-ply,SBD,M
Boys,99.79,13,Arkiel Winn,Mexia,92.08,156.49,79.38,161.03,396.89,Single-ply,SBD,M
Boys,99.79,14,Jeremy Wood,Fairfield,94.98,142.88,90.72,154.22,387.82,Single-ply,SBD,M
Boys,99.79,15,Rahi Patel,Mexia,91.81,136.08,97.52,142.88,376.48,Single-ply,SBD,M
Boys,99.79,16,Emmanuel Chavez,Valley Mills,96.89,133.81,68.04,158.76,360.61,Single-ply,SBD,M
Boys,109.77,1,Dillen Kilpatrick,Fairfield,107.68,240.4,170.1,226.8,637.3,Single-ply,SBD,M
Boys,109.77,2,Byron Bryant,Waco La Vega,109.77,244.94,131.54,231.33,607.81,Single-ply,SBD,M
Boys,109.77,3,Jason Harris,West,105.96,226.8,124.74,204.12,555.65,Single-ply,SBD,M
Boys,109.77,4,David Goodwin,China Spring,108.86,172.37,113.4,181.44,467.2,Single-ply,SBD,M
Boys,109.77,5,Dylan Morgan,Riesel,104.24,172.37,113.4,154.22,439.98,Single-ply,SBD,M
Boys,109.77,6,Daniel Perez,Wortham,101.97,170.1,97.52,158.76,426.38,Single-ply,SBD,M
Boys,109.77,7,Tyler Dobbs,Robinson,109.59,163.29,104.33,158.76,426.38,Single-ply,SBD,M
Boys,109.77,8,Chris Oliver,China Spring,108.9,145.15,97.52,156.49,399.16,Single-ply,SBD,M
Boys,109.77,9,Jacob Etheredge,McGregor,103.69,131.54,74.84,142.88,349.27,Single-ply,SBD,M
Boys,109.77,DQ,MaCade Ishell,Groesbeck,105.32,129.27,,142.88,,Single-ply,SBD,M
Boys,109.77,DQ,Zack Richardson,Groesbeck,106.41,174.63,,167.83,,Single-ply,SBD,M
Boys,109.77,DQ,Steven Contreras,Groesbeck,105.6,219.99,,158.76,,Single-ply,SBD,M
Boys,109.77,DQ,Ricardo Molina,Mexia,101.51,142.88,102.06,,,Single-ply,SBD,M
Boys,124.74,1,Matt Gerik,West,110.4,294.84,154.22,240.4,689.46,Single-ply,SBD,M
Boys,124.74,2,Garrett Brunson,Lorena,116.39,229.06,129.27,204.12,562.45,Single-ply,SBD,M
Boys,124.74,3,Preston Gaskamp,Robinson,112.76,204.12,120.2,204.12,528.44,Single-ply,SBD,M
Boys,124.74,4,Jordan Rivera,Waco La Vega,111.4,188.24,120.2,217.72,526.17,Single-ply,SBD,M
Boys,124.74,5,Stephen King,Groesbeck,120.47,192.78,136.08,167.83,496.68,Single-ply,SBD,M
Boys,124.74,6,Trever Freeman,Waco La Vega,113.13,192.78,102.06,190.51,485.34,Single-ply,SBD,M
Boys,124.74,7,Bailey Blackman,China Spring,121.74,161.03,97.52,172.37,430.91,Single-ply,SBD,M
Boys,124.74,8,Hunter Haynes,Fairfield,122.83,149.69,86.18,127.01,362.87,Single-ply,SBD,M
Boys,124.74+,1,Will Holmes,Robinson,131.72,215.46,136.08,204.12,555.65,Single-ply,SBD,M
Boys,124.74+,2,Connor Barnett,Robinson,134.17,215.46,102.06,181.44,498.95,Single-ply,SBD,M
Boys,124.74+,3,Traylon Berry,Waco La Vega,136.53,181.44,120.2,163.29,464.93,Single-ply,SBD,M
Boys,124.74+,4,Codi Birch-Harris,Waco Connally,133.45,181.44,99.79,181.44,462.66,Single-ply,SBD,M
Boys,124.74+,5,Ryan Alexander #2,Riesel,130.54,154.22,79.38,163.29,396.89,Single-ply,SBD,M
Boys,124.74+,6,Tyler Samford,Mexia,149.59,147.42,70.31,124.74,342.46,Single-ply,SBD,M
