Name,Division,Event,Equipment,WeightClassKg,Sex,Place,Squat1Kg,Squat2Kg,Squat3Kg,Best3SquatKg,Bench1Kg,Bench2Kg,Bench3Kg,Best3BenchKg,Deadlift1Kg,Deadlift2Kg,Deadlift3Kg,Best3DeadliftKg,TotalKg
Amy Weisberger,Pro Open,SBD,Multi-ply,60,F,1,190.51,201.85,210.92,210.92,131.54,-138.35,142.88,142.88,199.58,213.19,,213.19,566.99
Karen Sizemore,Pro Open,SBD,Multi-ply,90+,F,1,238.14,-263.08,-263.08,238.14,170.1,-188.24,-192.78,170.1,170.1,204.12,215.46,215.46,623.69
Janet Rhodes,Amateur Open,SBD,Multi-ply,60,F,1,104.33,129.27,-136.08,129.27,49.9,58.97,65.77,65.77,104.33,136.08,145.15,145.15,340.19
Karen Carpenter,Amateur Juniors 20-23,SBD,Multi-ply,60,F,1,99.79,124.74,-136.08,124.74,63.5,68.04,-72.57,68.04,99.79,113.4,120.2,120.2,312.98
Shannon Parrish,Amateur Submasters 33-39,SBD,Multi-ply,52,F,1,124.74,138.35,-142.88,138.35,70.31,-79.38,-79.38,70.31,140.61,167.83,-174.63,167.83,376.48
Kathleen Kleinert,Amateur Masters 45-49,SBD,Multi-ply,90+,F,1,29.48,45.36,52.16,52.16,29.48,36.29,-40.82,36.29,54.43,61.23,68.04,68.04,156.49
Anna Collins,Amateur Masters 65-69,SBD,Multi-ply,90+,F,1,34.02,52.16,-54.43,52.16,29.48,45.36,-47.63,45.36,65.77,99.79,102.06,102.06,199.58
Duane Rudel,Pro Open,B,Multi-ply,60,M,1,,,,,-124.74,-124.74,124.74,124.74,,,,,124.74
Mike Valone,Pro Open,B,Multi-ply,75,M,DQ,,,,,-174.63,-174.63,-181.44,,,,,,
David Kyser,Pro Open,B,Multi-ply,82.5,M,1,,,,,142.88,147.42,151.95,151.95,,,,,151.95
Joe Morsala Sr,Pro Open,B,Multi-ply,90,M,1,,,,,192.78,204.12,-215.46,204.12,,,,,204.12
Scot Lewis,Pro Open,B,Multi-ply,100,M,1,,,,,-254.01,-254.01,254.01,254.01,,,,,254.01
Grant Austin,Pro Open,B,Multi-ply,100,M,2,,,,,190.51,-222.26,-233.6,190.51,,,,,190.51
Glen Buechlein,Pro Open,B,Multi-ply,110,M,1,,,,,265.35,274.42,-283.5,274.42,,,,,274.42
Matthew Walters,Pro Open,B,Multi-ply,110,M,2,,,,,170.1,-181.44,-181.44,170.1,,,,,170.1
Jeff Spencer,Pro Open,B,Multi-ply,125,M,1,,,,,163.29,174.63,-181.44,174.63,,,,,174.63
Marvin Tetter,Pro Open,B,Multi-ply,140,M,1,,,,,238.14,-251.74,-251.74,238.14,,,,,238.14
Dustin Minks,Pro Open,B,Multi-ply,140,M,2,,,,,165.56,174.63,181.44,181.44,,,,,181.44
Mike Barravecchio,Pro Open,B,Multi-ply,140,M,DQ,,,,,-290.3,-299.37,-317.51,,,,,,
Doug Heath,Pro Open,SBD,Multi-ply,67.5,M,1,-229.06,229.06,-274.42,229.06,183.7,201.85,-208.65,201.85,183.7,206.38,229.06,229.06,659.98
Edward Guy,Pro Open,SBD,Multi-ply,75,M,1,181.44,-199.58,-199.58,181.44,124.74,136.08,-142.88,136.08,170.1,185.97,-195.04,185.97,503.49
Joe Dougherty,Pro Open,SBD,Multi-ply,82.5,M,1,303.91,331.12,-340.19,331.12,226.8,240.4,244.94,244.94,285.76,303.91,317.51,317.51,893.58
Tony Kamand,Pro Open,SBD,Multi-ply,82.5,M,2,-335.66,353.8,-367.41,353.8,181.44,190.51,195.04,195.04,292.57,317.51,-326.59,317.51,866.36
Mike Maxwell,Pro Open,SBD,Multi-ply,82.5,M,3,299.37,317.51,326.59,326.59,172.37,179.17,183.7,183.7,249.48,263.08,-274.42,263.08,773.37
Brantley Waites,Pro Open,SBD,Multi-ply,82.5,M,4,226.8,249.48,265.35,265.35,204.12,226.8,-233.6,226.8,217.72,240.4,-254.01,240.4,732.55
Fabian Wambsgans,Pro Open,SBD,Multi-ply,82.5,M,5,294.84,-312.98,-312.98,294.84,-127.01,127.01,-136.08,127.01,274.42,288.03,-294.84,288.03,709.87
Joe McCoy,Pro Open,SBD,Multi-ply,90,M,1,319.78,-344.73,-344.73,319.78,229.06,238.14,-272.16,238.14,274.42,290.3,301.64,301.64,859.56
Samuel Cuevas,Pro Open,SBD,Multi-ply,90,M,2,303.91,319.78,335.66,335.66,208.65,229.06,240.4,240.4,244.94,-254.01,-258.55,244.94,821
Mike Hill,Pro Open,SBD,Multi-ply,90,M,3,317.51,-324.32,-324.32,317.51,208.65,217.72,-226.8,217.72,260.82,276.69,-281.23,276.69,811.93
Mark Burrows,Pro Open,SBD,Multi-ply,90,M,4,290.3,-317.51,-317.51,290.3,185.97,204.12,215.46,215.46,260.82,288.03,-294.84,288.03,793.79
Ocsar Garcia,Pro Open,SBD,Multi-ply,90,M,5,272.16,285.76,299.37,299.37,181.44,190.51,195.04,195.04,249.48,265.35,281.23,281.23,775.64
Joe Jester,Pro Open,SBD,Multi-ply,90,M,6,249.48,-272.16,-272.16,249.48,176.9,-195.04,195.04,195.04,208.65,-231.33,231.33,231.33,675.85
Jim Corsitto,Pro Open,SBD,Multi-ply,90,M,7,276.69,-299.37,-299.37,276.69,83.91,-108.86,-108.86,83.91,249.48,263.08,,263.08,623.69
Matt Wiedemer,Pro Open,SBD,Multi-ply,90,M,DQ,-226.8,-226.8,-226.8,,-181.44,,,,-226.8,,,,
Sonny Kerschner,Pro Open,SBD,Multi-ply,90,M,DQ,226.8,-249.48,-249.48,226.8,-208.65,-208.65,-208.65,,-240.4,,,,
Chuck Vogelpohl,Pro Open,SBD,Multi-ply,100,M,1,-410.5,430.91,453.59,453.59,219.99,229.06,-240.4,229.06,335.66,-360.61,360.61,360.61,1043.26
Kenny Patterson,Pro Open,SBD,Multi-ply,100,M,2,333.39,351.53,365.14,365.14,299.37,-312.98,-333.39,299.37,260.82,288.03,294.84,294.84,959.35
Keith Ferrara,Pro Open,SBD,Multi-ply,100,M,3,353.8,-381.02,-385.55,353.8,224.53,-233.6,233.6,233.6,317.51,335.66,351.53,351.53,938.94
Galen Scott,Pro Open,SBD,Multi-ply,100,M,4,290.3,319.78,-331.12,319.78,226.8,247.21,-258.55,247.21,276.69,294.84,-301.64,294.84,861.83
Eric Patterson,Pro Open,SBD,Multi-ply,100,M,5,319.78,-351.53,-351.53,319.78,208.65,229.06,238.14,238.14,272.16,-297.1,-297.1,272.16,830.07
Scott Blanchard,Pro Open,SBD,Multi-ply,100,M,6,281.23,299.37,310.71,310.71,197.31,213.19,-219.99,213.19,281.23,303.91,-312.98,303.91,827.81
Jesse Augenstein,Pro Open,SBD,Multi-ply,100,M,7,312.98,328.85,-340.19,328.85,199.58,-208.65,-208.65,199.58,285.76,299.37,-308.44,299.37,827.81
William Tomko III,Pro Open,SBD,Multi-ply,100,M,8,312.98,-328.85,328.85,328.85,204.12,217.72,-226.8,217.72,267.62,278.96,-283.5,278.96,825.54
Ed Rectenwald,Pro Open,SBD,Multi-ply,100,M,9,226.8,240.4,254.01,254.01,238.14,247.21,-251.74,247.21,240.4,260.82,272.16,272.16,773.37
Bill Bennett,Pro Open,SBD,Multi-ply,100,M,10,-294.84,294.84,306.17,306.17,-204.12,217.72,-226.8,217.72,249.48,-272.16,,249.48,773.37
Greg Larkins,Pro Open,SBD,Multi-ply,100,M,11,204.12,226.8,-240.4,226.8,136.08,147.42,154.22,154.22,226.8,244.94,251.74,251.74,632.76
Shawn Eigenbrode,Pro Open,SBD,Multi-ply,100,M,12,136.08,-158.76,172.37,172.37,-113.4,122.47,-131.54,122.47,158.76,170.1,181.44,181.44,476.27
David Karrem,Pro Open,SBD,Multi-ply,100,M,DQ,-367.41,-408.23,-408.23,,-217.72,,,,-272.16,,,,
Joe Bayles,Pro Open,SBD,Multi-ply,110,M,1,340.19,-374.21,381.02,381.02,254.01,265.35,274.42,274.42,317.51,-342.46,342.46,342.46,997.9
Nick LaVitola,Pro Open,SBD,Multi-ply,110,M,2,362.87,381.02,394.63,394.63,226.8,233.6,-238.14,233.6,340.19,-362.87,-362.87,340.19,968.42
Marc Bartley,Pro Open,SBD,Multi-ply,110,M,3,-371.95,374.21,-396.89,374.21,249.48,265.35,272.16,272.16,294.84,-317.51,317.51,317.51,963.88
Bill Kyle,Pro Open,SBD,Multi-ply,110,M,4,340.19,-351.53,351.53,351.53,254.01,265.35,-274.42,265.35,317.51,-328.85,-328.85,317.51,934.4
Chris Young,Pro Open,SBD,Multi-ply,110,M,5,-347,365.14,-371.95,365.14,192.78,219.99,-226.8,219.99,294.84,310.71,-324.32,310.71,895.84
Chris Focht,Pro Open,SBD,Multi-ply,110,M,6,303.91,-335.66,335.66,335.66,208.65,240.4,-251.74,240.4,281.23,303.91,-319.78,303.91,879.97
Chad Shortland,Pro Open,SBD,Multi-ply,110,M,7,-283.5,283.5,-306.17,283.5,254.01,265.35,272.16,272.16,301.64,-328.85,-328.85,301.64,857.29
David Beversdorf,Pro Open,SBD,Multi-ply,110,M,8,294.84,317.51,-340.19,317.51,206.38,217.72,226.8,226.8,256.28,276.69,-283.5,276.69,821
Eugene Covey,Pro Open,SBD,Multi-ply,110,M,9,294.84,322.05,328.85,328.85,167.83,206.38,-215.46,206.38,240.4,256.28,-272.16,256.28,791.52
Tim Fouts,Pro Open,SBD,Multi-ply,110,M,10,-272.16,272.16,299.37,299.37,195.04,204.12,-215.46,204.12,260.82,-285.76,-285.76,260.82,764.3
Ed Ruquet,Pro Open,SBD,Multi-ply,110,M,11,317.51,-337.93,-337.93,317.51,-188.24,-188.24,188.24,188.24,247.21,-281.23,-281.23,247.21,752.96
Matthew Rydelek,Pro Open,SBD,Multi-ply,110,M,12,240.4,258.55,272.16,272.16,170.1,188.24,-204.12,188.24,226.8,249.48,265.35,265.35,725.75
Mike Fessenden,Pro Open,SBD,Multi-ply,110,M,DQ,,,,,,,,,,,,,
Ed Clark,Pro Open,SBD,Multi-ply,110,M,DQ,,,,,,,,,,,,,
Lee Angle,Pro Open,SBD,Multi-ply,110,M,DQ,306.17,-326.59,-326.59,306.17,-188.24,-206.38,-210.92,,-272.16,,,,
Gabe Daniels,Pro Open,SBD,Multi-ply,125,M,1,340.19,367.41,-385.55,367.41,244.94,260.82,272.16,272.16,340.19,367.41,-385.55,367.41,1006.98
Jerry Obradovic,Pro Open,SBD,Multi-ply,125,M,2,328.85,-351.53,362.87,362.87,260.82,283.5,299.37,299.37,322.05,-340.19,,322.05,984.3
Jerramiah Meyers,Pro Open,SBD,Multi-ply,125,M,3,328.85,351.53,365.14,365.14,-226.8,231.33,-249.48,231.33,317.51,340.19,-351.53,340.19,936.67
John Green,Pro Open,SBD,Multi-ply,125,M,4,-408.23,408.23,,408.23,208.65,-219.99,-219.99,208.65,294.84,317.51,-326.59,317.51,934.4
Tony Beach,Pro Open,SBD,Multi-ply,125,M,5,328.85,342.46,-356.07,342.46,-254.01,267.62,-274.42,267.62,308.44,322.05,-328.85,322.05,932.13
John Manly,Pro Open,SBD,Multi-ply,125,M,6,-328.85,340.19,-362.87,340.19,226.8,-238.14,238.14,238.14,306.17,328.85,,328.85,907.18
Douglas Hollis,Pro Open,SBD,Multi-ply,125,M,7,299.37,322.05,335.66,335.66,226.8,240.4,-249.48,240.4,308.44,-331.12,-331.12,308.44,884.51
John Bott,Pro Open,SBD,Multi-ply,125,M,8,317.51,344.73,362.87,362.87,219.99,238.14,249.48,249.48,272.16,-294.84,-294.84,272.16,884.51
Jim Wendler,Pro Open,SBD,Multi-ply,125,M,9,317.51,351.53,374.21,374.21,206.38,217.72,-226.8,217.72,272.16,-292.57,-292.57,272.16,864.09
Tim Musser,Pro Open,SBD,Multi-ply,125,M,10,326.59,-344.73,-344.73,326.59,219.99,240.4,249.48,249.48,265.35,-281.23,-308.44,265.35,841.41
Shelby Robbins,Pro Open,SBD,Multi-ply,125,M,11,317.51,-351.53,-374.21,317.51,188.24,210.92,226.8,226.8,288.03,-294.84,,288.03,832.34
Danny Dauge,Pro Open,SBD,Multi-ply,125,M,12,-310.71,310.71,-335.66,310.71,181.44,195.04,208.65,208.65,283.5,297.1,-308.44,297.1,816.47
Mike Stuchiner,Pro Open,SBD,Multi-ply,125,M,13,281.23,308.44,-322.05,308.44,188.24,199.58,-210.92,199.58,258.55,278.96,-292.57,278.96,786.98
Shaun Allen,Pro Open,SBD,Multi-ply,125,M,DQ,,,,,,,,,,,,,
Chad Miller,Pro Open,SBD,Multi-ply,125,M,DQ,272.16,-294.84,294.84,294.84,-188.24,-188.24,-192.78,,-267.62,,,,
Chris Wiers,Pro Open,SBD,Multi-ply,140,M,1,317.51,340.19,351.53,351.53,-272.16,276.69,285.76,285.76,322.05,340.19,-349.27,340.19,977.49
Jon Grove,Pro Open,SBD,Multi-ply,140,M,2,-371.95,371.95,-408.23,371.95,258.55,-283.5,-283.5,258.55,272.16,-347,-347,272.16,902.65
Brent Lever,Pro Open,SBD,Multi-ply,140,M,DQ,,,,,,,,,,,,,
Matthew Smith #4,Pro Open,SBD,Multi-ply,140+,M,1,374.21,408.23,430.91,430.91,272.16,294.84,303.91,303.91,331.12,353.8,374.21,374.21,1109.03
Donnie Thompson #1,Pro Open,SBD,Multi-ply,140+,M,2,410.5,-426.38,-426.38,410.5,274.42,-283.5,-283.5,274.42,328.85,351.53,-358.34,351.53,1036.46
Russ Barlow,Pro Open,SBD,Multi-ply,140+,M,3,367.41,385.55,-396.89,385.55,235.87,-247.21,247.21,247.21,335.66,362.87,-367.41,362.87,995.64
Tony Hutson,Pro Open,SBD,Multi-ply,140+,M,4,376.48,-419.57,419.57,419.57,260.82,-274.42,-274.42,260.82,306.17,-317.51,-317.51,306.17,986.56
John Phillips,Pro Open,SBD,Multi-ply,140+,M,5,317.51,340.19,-362.87,340.19,235.87,244.94,254.01,254.01,294.84,312.98,328.85,328.85,923.06
Mike Ruggiera,Pro Open,SBD,Multi-ply,140+,M,DQ,-415.04,-415.04,-446.79,,-244.94,,,,-344.73,,,,
Jerry Willoughby,Pro Open,SBD,Multi-ply,140+,M,DQ,362.87,-408.23,,362.87,-204.12,,,,-308.44,,,,
Andre Henry,Pro Open,SBD,Multi-ply,140+,M,DQ,-385.55,-430.91,-430.91,,-265.35,-276.69,-281.23,,-294.84,,,,
Josh Murphy,Pro Juniors 20-23,SBD,Multi-ply,100,M,DQ,-299.37,,,,-151.95,,,,-258.55,,,,
Tim Musser,Pro Juniors 20-23,SBD,Multi-ply,125,M,1,326.59,-344.73,-344.73,326.59,219.99,240.4,249.48,249.48,265.35,-281.23,-308.44,265.35,841.41
Matt Wilson #1,Pro Juniors 20-23,SBD,Multi-ply,140+,M,1,351.53,374.21,381.02,381.02,192.78,-210.92,-226.8,192.78,260.82,288.03,294.84,294.84,868.63
Sean Hailey,Pro Submasters 33-39,SBD,Multi-ply,90,M,1,235.87,-258.55,-258.55,235.87,151.95,170.1,181.44,181.44,195.04,-213.19,213.19,213.19,630.49
Nick LaVitola,Pro Submasters 33-39,SBD,Multi-ply,110,M,1,362.87,381.02,394.63,394.63,226.8,233.6,-238.14,233.6,340.19,-362.87,-362.87,340.19,968.42
Robert Elrod,Pro Submasters 33-39,SBD,Multi-ply,110,M,2,272.16,303.91,,303.91,142.88,-192.78,197.31,197.31,215.46,240.4,254.01,254.01,755.23
Alexander Kiest,Pro Submasters 33-39,SBD,Multi-ply,140,M,1,317.51,333.39,344.73,344.73,226.8,231.33,-235.87,231.33,-294.84,294.84,-317.51,294.84,870.9
Blaine Hodson,Pro Submasters 33-39,SBD,Multi-ply,140,M,2,-226.8,-226.8,226.8,226.8,208.65,213.19,,213.19,226.8,-231.33,-231.33,226.8,666.78
Tony Kamand,Pro Masters 40-44,SBD,Multi-ply,82.5,M,1,-335.66,353.8,-367.41,353.8,181.44,190.51,195.04,195.04,292.57,317.51,-326.59,317.51,866.36
Glenn Clayman,Pro Masters 40-44,SBD,Multi-ply,90,M,1,-247.21,247.21,258.55,258.55,192.78,-201.85,-201.85,192.78,249.48,276.69,-281.23,276.69,728.02
Ross Althouse,Pro Masters 40-44,SBD,Multi-ply,90,M,DQ,-204.12,-204.12,-204.12,,136.08,142.88,154.22,154.22,199.58,-208.65,-208.65,199.58,
Galen Scott,Pro Masters 40-44,SBD,Multi-ply,100,M,1,290.3,319.78,-331.12,319.78,226.8,247.21,-258.55,247.21,276.69,294.84,-301.64,294.84,861.83
Ed Ruquet,Pro Masters 40-44,SBD,Multi-ply,110,M,1,317.51,-337.93,-337.93,317.51,-188.24,-188.24,188.24,188.24,247.21,-281.23,-281.23,247.21,752.96
Chris French,Pro Masters 40-44,SBD,Multi-ply,110,M,2,-263.08,272.16,278.96,278.96,147.42,156.49,165.56,165.56,254.01,267.62,-272.16,267.62,712.14
Danny Dauge,Pro Masters 40-44,SBD,Multi-ply,125,M,1,-310.71,310.71,-335.66,310.71,181.44,195.04,208.65,208.65,283.5,297.1,-308.44,297.1,816.47
Tony DeSantis,Pro Masters 40-44,SBD,Multi-ply,125,M,2,226.8,-249.48,-258.55,226.8,174.63,183.7,190.51,190.51,226.8,249.48,-272.16,249.48,666.78
Rocco Capoccia,Pro Masters 40-44,SBD,Multi-ply,140,M,1,328.85,362.87,-385.55,362.87,210.92,226.8,244.94,244.94,276.69,299.37,315.25,315.25,923.06
JR Hunt,Pro Masters 40-44,SBD,Multi-ply,140+,M,1,403.7,435.45,-455.86,435.45,265.35,285.76,-306.17,285.76,281.23,317.51,340.19,340.19,1061.41
Steve Brodsky,Pro Masters 40-44,SBD,Multi-ply,140+,M,2,342.46,365.14,378.75,378.75,229.06,-233.6,233.6,233.6,274.42,297.1,-306.17,297.1,909.45
Doug Heath,Pro Masters 45-49,SBD,Multi-ply,67.5,M,1,-229.06,229.06,-274.42,229.06,183.7,201.85,-208.65,201.85,183.7,206.38,229.06,229.06,659.98
Jim Corsitto,Pro Masters 45-49,SBD,Multi-ply,90,M,1,276.69,-299.37,-299.37,276.69,83.91,-108.86,-108.86,83.91,249.48,263.08,,263.08,623.69
Richard Fortson,Pro Masters 45-49,SBD,Multi-ply,90,M,2,-235.87,-235.87,235.87,235.87,113.4,-136.08,-136.08,113.4,235.87,249.48,272.16,272.16,621.42
AJ Henderson,Pro Masters 45-49,SBD,Multi-ply,110,M,1,303.91,324.32,344.73,344.73,163.29,172.37,176.9,176.9,260.82,278.96,-288.03,278.96,800.59
Mark Dimiduk,Pro Masters 45-49,SBD,Multi-ply,125,M,1,342.46,362.87,-376.48,362.87,147.42,156.49,-165.56,156.49,288.03,317.51,,317.51,836.88
Fabian Wambsgans,Pro Masters 55-59,SBD,Multi-ply,82.5,M,1,294.84,-312.98,-312.98,294.84,-127.01,127.01,-136.08,127.01,274.42,288.03,-294.84,288.03,709.87
Allen McVaney,Amateur Open,SBD,Multi-ply,75,M,1,240.4,258.55,-265.35,258.55,129.27,138.35,142.88,142.88,231.33,249.48,-258.55,249.48,650.91
Brian Crowe,Amateur Open,SBD,Multi-ply,82.5,M,1,272.16,-288.03,-292.57,272.16,192.78,206.38,210.92,210.92,247.21,-267.62,-267.62,247.21,730.28
George Sotirakos,Amateur Open,SBD,Multi-ply,82.5,M,2,-226.8,-226.8,226.8,226.8,188.24,201.85,-206.38,201.85,238.14,254.01,-260.82,254.01,682.66
David Kirschen,Amateur Open,SBD,Multi-ply,82.5,M,3,-247.21,247.21,-272.16,247.21,165.56,181.44,190.51,190.51,226.8,-242.67,-242.67,226.8,664.51
Ryan McMillan,Amateur Open,SBD,Multi-ply,82.5,M,4,174.63,197.31,215.46,215.46,129.27,-138.35,138.35,138.35,174.63,197.31,210.92,210.92,564.72
Greg Brason,Amateur Open,SBD,Multi-ply,82.5,M,DQ,-272.16,-283.5,,,-34.02,,,,-34.02,,,,
Derek Wallace,Amateur Open,SBD,Multi-ply,90,M,1,269.89,292.57,-306.17,292.57,161.03,174.63,181.44,181.44,229.06,251.74,260.82,260.82,734.82
Dick Crane,Amateur Open,SBD,Multi-ply,90,M,2,-238.14,-238.14,238.14,238.14,140.61,158.76,-165.56,158.76,192.78,-226.8,,192.78,589.67
Jason Cox,Amateur Open,SBD,Multi-ply,100,M,1,349.27,362.87,371.95,371.95,215.46,-224.53,-224.53,215.46,265.35,274.42,-283.5,274.42,861.83
Paul Sutphin,Amateur Open,SBD,Multi-ply,100,M,2,283.5,310.71,,310.71,158.76,165.56,167.83,167.83,-244.94,256.28,260.82,260.82,739.36
Grant Austin,Amateur Open,SBD,Multi-ply,100,M,3,238.14,260.82,-272.16,260.82,190.51,-222.26,-233.6,190.51,226.8,258.55,-274.42,258.55,709.87
Dr Daniel Fields,Amateur Open,SBD,Multi-ply,100,M,DQ,,,,,,,,,,,,,
Patrick Dick,Amateur Open,SBD,Multi-ply,110,M,1,290.3,-308.44,308.44,308.44,199.58,215.46,226.8,226.8,244.94,260.82,-272.16,260.82,796.05
Jason Voelkel,Amateur Open,SBD,Multi-ply,110,M,2,199.58,215.46,226.8,226.8,142.88,147.42,151.95,151.95,204.12,210.92,226.8,226.8,605.55
Warren Mconnas,Amateur Open,SBD,Multi-ply,110,M,DQ,,,,,,,,,,,,,
Shawn Brooks #2,Amateur Open,SBD,Multi-ply,125,M,1,294.84,-317.51,317.51,317.51,215.46,226.8,235.87,235.87,299.37,-319.78,-331.12,299.37,852.75
Phillip Battle,Amateur Open,SBD,Multi-ply,125,M,2,294.84,-319.78,319.78,319.78,192.78,204.12,208.65,208.65,258.55,276.69,288.03,288.03,816.47
Palmer Simpson,Amateur Open,SBD,Multi-ply,125,M,3,272.16,294.84,-317.51,294.84,195.04,213.19,-226.8,213.19,254.01,267.62,274.42,274.42,782.45
Brad Saunders,Amateur Open,SBD,Multi-ply,125,M,4,-272.16,272.16,294.84,294.84,204.12,-215.46,-215.46,204.12,249.48,265.35,-272.16,265.35,764.3
Marcus Brown,Amateur Open,SBD,Multi-ply,125,M,5,272.16,294.84,310.71,310.71,174.63,183.7,-192.78,183.7,226.8,249.48,263.08,263.08,757.5
Adam Howell #1,Amateur Open,SBD,Multi-ply,140,M,1,344.73,367.41,-378.75,367.41,226.8,-249.48,-249.48,226.8,-283.5,283.5,-290.3,283.5,877.7
Anthony Gianotti,Amateur Open,SBD,Multi-ply,140,M,DQ,249.48,-285.76,-294.84,249.48,147.42,,,147.42,-229.06,,,,
Jason Davidson,Amateur Open,SBD,Multi-ply,140,M,DQ,299.37,-317.51,317.51,317.51,-188.24,-188.24,-188.24,,254.01,272.16,-276.69,272.16,
Chris Therman,Amateur Open,SBD,Multi-ply,140+,M,1,340.19,-362.87,362.87,362.87,192.78,210.92,226.8,226.8,283.5,-299.37,-299.37,283.5,873.17
David Oyler,Amateur Open,SBD,Multi-ply,140+,M,2,292.57,324.32,333.39,333.39,170.1,179.17,-183.7,179.17,283.5,303.91,-311.16,303.91,816.47
Norman DeLan,Amateur Open,SBD,Multi-ply,140+,M,3,272.16,317.51,-362.87,317.51,181.44,-238.14,-238.14,181.44,272.16,-283.5,-283.5,272.16,771.11
Ryan Martucci,Amateur Juniors 20-23,SBD,Multi-ply,90,M,1,272.16,-306.17,306.17,306.17,142.88,154.22,-163.29,154.22,219.99,229.06,-231.33,229.06,689.46
Gary Benedetti,Amateur Juniors 20-23,SBD,Multi-ply,125,M,G,195.04,-240.4,-240.4,195.04,161.03,183.25,195.04,195.04,197.31,-233.6,,197.31,587.4
John Birney,Amateur Juniors 20-23,SBD,Multi-ply,125,M,DQ,,,,,,,,,,,,,
Allen McVaney,Amateur Submasters 33-39,SBD,Multi-ply,75,M,1,240.4,258.55,-265.35,258.55,129.27,138.35,142.88,142.88,231.33,249.48,-258.55,249.48,650.91
Greg Brason,Amateur Submasters 33-39,SBD,Multi-ply,82.5,M,DQ,-272.16,-283.5,,,-34.02,,,,-34.02,,,,
Derek Wallace,Amateur Submasters 33-39,SBD,Multi-ply,90,M,1,269.89,292.57,-306.17,292.57,161.03,174.63,181.44,181.44,229.06,251.74,260.82,260.82,734.82
Mark Majer,Amateur Submasters 33-39,SBD,Multi-ply,90,M,2,233.6,247.21,-260.82,247.21,142.88,-151.95,-151.95,142.88,233.6,244.94,-254.01,244.94,635.03
Scott Barker,Amateur Submasters 33-39,SBD,Multi-ply,90,M,DQ,,,,,,,,,,,,,
Edward Callaku,Amateur Submasters 33-39,SBD,Multi-ply,110,M,1,276.69,-303.91,-303.91,276.69,167.83,185.97,192.78,192.78,254.01,276.69,-288.03,276.69,746.16
Jim Parrish,Amateur Submasters 33-39,SBD,Multi-ply,110,M,2,254.01,294.84,,294.84,170.1,-181.44,181.44,181.44,260.82,-317.51,-317.51,260.82,737.09
Kirk Bardos,Amateur Submasters 33-39,SBD,Multi-ply,110,M,3,204.12,219.99,233.6,233.6,170.1,176.9,181.44,181.44,229.06,251.74,265.35,265.35,680.39
Palmo Araeri,Amateur Submasters 33-39,SBD,Multi-ply,125,M,1,265.35,288.03,294.84,294.84,215.46,226.8,-231.33,226.8,226.8,240.4,247.21,247.21,768.84
Sam Glover Jr,Amateur Submasters 33-39,SBD,Multi-ply,125,M,2,226.8,249.48,272.16,272.16,151.95,158.76,167.83,167.83,226.8,240.4,-247.21,240.4,680.39
David Oyler,Amateur Submasters 33-39,SBD,Multi-ply,140+,M,1,292.57,324.32,333.39,333.39,170.1,179.17,-183.7,179.17,283.5,303.91,-311.16,303.91,816.47
Mark French,Amateur Submasters 33-39,SBD,Multi-ply,140+,M,DQ,285.76,-317.51,317.51,317.51,-174.63,-179.17,-179.17,,-249.48,,,,
Allen Ankrom,Amateur Teen,SBD,Multi-ply,67.5,M,1,-206.38,-206.38,206.38,206.38,113.4,-127.01,127.01,127.01,176.9,-204.12,204.12,204.12,537.51
Michael Welcheck,Amateur Teen,SBD,Multi-ply,67.5,M,2,163.29,174.63,-183.7,174.63,86.18,-92.99,92.99,92.99,163.29,176.9,-185.97,176.9,444.52
Jeff Gum,Amateur Teen,SBD,Multi-ply,75,M,1,-192.78,208.65,-231.33,208.65,99.79,108.86,115.67,115.67,192.78,204.12,-219.99,204.12,528.44
AJ Santino,Amateur Teen,SBD,Multi-ply,75,M,2,147.42,181.44,-192.78,181.44,113.4,-127.01,127.01,127.01,172.37,210.92,215.46,215.46,523.9
Brandon Mathews,Amateur Teen,SBD,Multi-ply,75,M,3,147.42,176.9,-188.24,176.9,102.06,-108.86,-108.86,102.06,136.08,161.03,176.9,176.9,455.86
Patrick Curley,Amateur Teen,SBD,Multi-ply,75,M,DQ,197.31,-219.99,-226.8,197.31,-61.23,,,,208.65,254.01,-263.08,254.01,
Eddie Melodini,Amateur Teen,SBD,Multi-ply,82.5,M,1,-181.44,181.44,195.04,195.04,122.47,131.54,-136.08,131.54,199.58,208.65,217.72,217.72,544.31
Matthew Schiff,Amateur Teen,SBD,Multi-ply,82.5,M,2,-181.44,181.44,-204.12,181.44,102.06,108.86,113.4,113.4,90.72,,,90.72,385.55
Pat Delvey,Amateur Teen,SBD,Multi-ply,100,M,1,244.94,-285.76,-285.76,244.94,149.69,163.29,170.1,170.1,249.48,-303.91,-303.91,249.48,664.51
Kevin Deweese,Amateur Teen,SBD,Multi-ply,110,M,1,256.28,-272.16,272.16,272.16,174.63,188.24,-195.04,188.24,226.8,249.48,265.35,265.35,725.75
John Gengo,Amateur Masters 40-44,SBD,Multi-ply,67.5,M,1,165.56,181.44,185.97,185.97,127.01,136.08,-138.35,136.08,204.12,222.26,-226.8,222.26,544.31
Rick Hamsher,Amateur Masters 40-44,SBD,Multi-ply,75,M,1,176.9,192.78,199.58,199.58,131.54,142.88,145.15,145.15,204.12,-226.8,-226.8,204.12,548.85
Russell Smith,Amateur Masters 40-44,SBD,Multi-ply,110,M,1,274.42,-292.57,-292.57,274.42,183.7,-197.31,-197.31,183.7,238.14,256.28,-263.08,256.28,714.41
Norman DeLan,Amateur Masters 40-44,SBD,Multi-ply,140+,M,1,272.16,317.51,-362.87,317.51,181.44,-238.14,-238.14,181.44,272.16,-283.5,-283.5,272.16,771.11
Anthony Phillips,Amateur Masters 40-44,SBD,Multi-ply,140+,M,DQ,-229.06,,,,-113.4,,,,-145.15,,,,
Paul Sutphin,Amateur Masters 45-49,SBD,Multi-ply,100,M,1,283.5,310.71,,310.71,158.76,165.56,167.83,167.83,-244.94,256.28,260.82,260.82,739.36
Palmer Simpson,Amateur Masters 45-49,SBD,Multi-ply,100,M,1,272.16,294.84,-317.51,294.84,195.04,213.19,-226.8,213.19,254.01,267.62,274.42,274.42,782.45
Dennis Brochey,Amateur Masters 50-54,SBD,Multi-ply,67.5,M,1,147.42,161.03,-167.83,161.03,115.67,122.47,-127.01,122.47,145.15,156.49,-163.29,156.49,439.98
Sam Glover Sr,Amateur Masters 55-59,SBD,Multi-ply,100,M,1,165.56,183.7,-199.58,183.7,113.4,129.27,138.35,138.35,165.56,183.7,195.04,195.04,517.1
Larry Smith,Amateur Masters 55-59,SBD,Multi-ply,140+,M,1,-231.33,240.4,-254.01,240.4,115.67,-124.74,,115.67,156.49,172.37,181.44,181.44,537.51
Richard Furman,Amateur Masters 60-64,SBD,Multi-ply,90,M,1,-174.63,174.63,190.51,190.51,113.4,120.2,122.47,122.47,204.12,217.72,226.8,226.8,539.77
Ronald Zavacky,Amateur Masters 60-64,SBD,Multi-ply,90,M,2,165.56,174.63,-181.44,174.63,129.27,136.08,-140.61,136.08,185.97,197.31,208.65,208.65,519.36
Nair Ravindran,Amateur Masters 65-69,SBD,Multi-ply,67.5,M,1,29.48,43.09,-45.36,43.09,29.48,40.82,-43.09,40.82,47.63,65.77,70.31,70.31,154.22
Ben Creech,Amateur Masters 70-74,SBD,Multi-ply,82.5,M,1,74.84,95.25,97.52,97.52,40.82,54.43,56.7,56.7,97.52,117.93,120.2,120.2,274.42
Chris Colondrillo,Amateur Police,SBD,Multi-ply,82.5,M,1,181.44,192.78,-204.12,192.78,113.4,129.27,,129.27,238.14,263.08,-272.16,263.08,585.13
Robert Williams,Amateur Police,SBD,Multi-ply,100,M,1,163.29,185.97,190.51,190.51,108.86,149.69,-158.76,149.69,151.95,174.63,183.7,183.7,523.9
Robert Esparza,Amateur Police,SBD,Multi-ply,110,M,DQ,,,,,,,,,,,,,
Mark Dimiduk,Amateur Police,SBD,Multi-ply,125,M,1,342.46,362.87,-376.48,362.87,147.42,156.49,-165.56,156.49,288.03,317.51,,317.51,836.88
Andrew Grese,Pro Open,B,Multi-ply,100,M,DQ,,,,,,,,,,,,,
Louis Gerczak,Pro Open,B,Multi-ply,100,M,DQ,,,,,,,,,,,,,
