Name,WeightClassKg,Division,Sex,Best3SquatKg,Best3BenchKg,Best3DeadliftKg,TotalKg,Event,Equipment,Place
F. Giannandrea,52,Open,M,95,77.5,142.5,315,SBD,Single-ply,1
D. Gunther,52,Open,M,92.5,55,137.5,285,SBD,Single-ply,2
Gary Coleman,56,Open,M,137.5,120,185,442.5,SBD,Single-ply,1
M. Rose,56,Open,M,145,95,192.5,432.5,SBD,Single-ply,2
Dario Mucilli,56,Open,M,162.5,97.5,167.5,427.5,SBD,Single-ply,3
K. Norton,56,Open,M,120,95,150,365,SBD,Single-ply,4
J. Merrill,56,Open,M,105,80,142.5,327.5,SBD,Single-ply,5
S. Capani,60,Open,M,170,97.5,175,442.5,SBD,Single-ply,1
Mike Gabak,60,Open,M,155,92.5,195,442.5,SBD,Single-ply,2
Tom Newberry,60,Open,M,147.5,105,145,397.5,SBD,Single-ply,3
C. Arpie,60,Open,M,125,92.5,142.5,360,SBD,Single-ply,4
George Niesyty,67.5,Open,M,222.5,150,297.5,670,SBD,Single-ply,1
Dave LaPlant,67.5,Open,M,197.5,137.5,215,550,SBD,Single-ply,2
R. McNamee,67.5,Open,M,177.5,145,202.5,525,SBD,Single-ply,3
J. Stallsworth,67.5,Open,M,192.5,127.5,200,520,SBD,Single-ply,4
Fred Kenyon,67.5,Open,M,187.5,107.5,210,505,SBD,Single-ply,5
Jay Halprin,67.5,Open,M,180,107.5,200,487.5,SBD,Single-ply,6
Dillon Maier,67.5,Open,M,167.5,102.5,210,480,SBD,Single-ply,7
S. D'Amico,67.5,Open,M,175,102.5,185,462.5,SBD,Single-ply,8
J. Cookfair,67.5,Open,M,110,97.5,162.5,370,SBD,Single-ply,9
R. Amorese,67.5,Open,M,112.5,67.5,167.5,347.5,SBD,Single-ply,10
Tom Piazza,75,Open,M,235,162.5,232.5,630,SBD,Single-ply,1
Scott Cannova,75,Open,M,197.5,142.5,250,590,SBD,Single-ply,2
Ed Patten,75,Open,M,227.5,132.5,227.5,587.5,SBD,Single-ply,3
Dan Favata,75,Open,M,200,152.5,207.5,560,SBD,Single-ply,4
M. Teuchert,75,Open,M,207.5,125,197.5,530,SBD,Single-ply,5
M. Ciwquanti,75,Open,M,207.5,125,197.5,530,SBD,Single-ply,6
K. Reome,75,Open,M,170,105,232.5,507.5,SBD,Single-ply,7
Jim Fletcher,75,Open,M,187.5,120,195,502.5,SBD,Single-ply,8
S. Batjiaka,75,Open,M,160,112.5,182.5,455,SBD,Single-ply,9
J. Denoto,75,Open,M,155,110,182.5,447.5,SBD,Single-ply,10
James van Allen,82.5,Open,M,280,172.5,265,717.5,SBD,Single-ply,1
Steve Circulnick,82.5,Open,M,255,150,280,685,SBD,Single-ply,2
E. Boyea,82.5,Open,M,242.5,160,252.5,655,SBD,Single-ply,4
Gil Scarazzini,82.5,Open,M,232.5,155,265,652.5,SBD,Single-ply,5
Mike Makofsky,82.5,Open,M,240,165,265,670,SBD,Single-ply,3
J. Kardum,82.5,Open,M,240,155,250,645,SBD,Single-ply,6
Tony Cardillo,82.5,Open,M,260,152.5,227.5,640,SBD,Single-ply,7
Fred Brescia,82.5,Open,M,215,142.5,227.5,585,SBD,Single-ply,8
L. Humphrey,82.5,Open,M,167.5,125,262.5,555,SBD,Single-ply,9
A. Bender Jr,82.5,Open,M,212.5,132.5,205,550,SBD,Single-ply,10
M. Tegiacchi,82.5,Open,M,210,102.5,212.5,525,SBD,Single-ply,11
J. Tesciero,82.5,Open,M,165,115,195,475,SBD,Single-ply,13
D. Babcock,82.5,Open,M,155,130,197.5,482.5,SBD,Single-ply,12
R. Tousaw,82.5,Open,M,165,115,195,475,SBD,Single-ply,14
Mike Capasso,90,Open,M,312.5,177.5,305,795,SBD,Single-ply,1
Tim Weidman,90,Open,M,285,165,295,745,SBD,Single-ply,2
B. Bauer,90,Open,M,282.5,172.5,272.5,727.5,SBD,Single-ply,3
E. Ruquet,90,Open,M,272.5,147.5,272.5,692.5,SBD,Single-ply,4
T. Coratti,90,Open,M,260,155,255,670,SBD,Single-ply,6
Paul Engel,90,Open,M,262.5,155,242.5,660,SBD,Single-ply,7
Bruce Churchwell,90,Open,M,242.5,145,295,682.5,SBD,Single-ply,5
James Sloan,90,Open,M,250,142.5,250,642.5,SBD,Single-ply,8
Neil Confessore,90,Open,M,232.5,155,232.5,620,SBD,Single-ply,9
Andy Putrello,90,Open,M,240,147.5,222.5,610,SBD,Single-ply,10
J. Bowman,90,Open,M,235,142.5,232.5,610,SBD,Single-ply,11
F. Massa,90,Open,M,220,172.5,210,602.5,SBD,Single-ply,12
D. Mantella,90,Open,M,200,135,252.5,587.5,SBD,Single-ply,14
James Nichols,90,Open,M,222.5,142.5,227.5,592.5,SBD,Single-ply,13
Bryant Meltzer,90,Open,M,212.5,122.5,240,575,SBD,Single-ply,15
T. Wilson,90,Open,M,212.5,105,205,522.5,SBD,Single-ply,16
M. Walker,90,Open,M,172.5,125,217.5,515,SBD,Single-ply,17
George Galster,100,Open,M,272.5,190,282.5,745,SBD,Single-ply,1
Tom Palmer,100,Open,M,260,170,302.5,732.5,SBD,Single-ply,2
Dave Giamichael,100,Open,M,250,172.5,272.5,695,SBD,Single-ply,3
Tom Underwood,100,Open,M,240,152.5,265,657.5,SBD,Single-ply,4
Peter Brahm,100,Open,M,237.5,155,262.5,655,SBD,Single-ply,5
R. Winton,100,Open,M,217.5,130,235,582.5,SBD,Single-ply,6
P. Giemza,100,Open,M,175,120,197.5,492.5,SBD,Single-ply,7
Dale Stefano,110,Open,M,287.5,182.5,302.5,772.5,SBD,Single-ply,1
M. Grogan,110,Open,M,290,187.5,285,762.5,SBD,Single-ply,2
Bob Dean,110,Open,M,267.5,172.5,257.5,697.5,SBD,Single-ply,3
Gary Montana,110,Open,M,245,202.5,250,697.5,SBD,Single-ply,4
Ted Reed,110,Open,M,260,137.5,292.5,690,SBD,Single-ply,5
V. Vilardi,110,Open,M,227.5,187.5,240,655,SBD,Single-ply,6
M. Annese,110,Open,M,202.5,150,245,597.5,SBD,Single-ply,7
John Martin,125,Open,M,335,250,285,870,SBD,Single-ply,1
V. Vardine,125,Open,M,205,180,245,630,SBD,Single-ply,2
Jim Tomaski,125+,Open,M,322.5,192.5,282.5,797.5,SBD,Single-ply,1
J. Miller,125+,Open,M,290,157.5,272.5,720,SBD,Single-ply,2
Oscar Jensen,125+,Open,M,250,155,250,655,SBD,Single-ply,3
