Division,WeightClassKg,Place,Name,Team,BodyweightKg,Best3SquatKg,Best3BenchKg,Best3DeadliftKg,TotalKg,Equipment,Event,Sex
Boys,51.71,1,Freddy Ponce,Gilmer,51.71,113.4,65.77,138.35,317.51,Single-ply,SBD,M
Boys,51.71,2,Tucker Sanders,Brownsboro,49.35,106.59,72.57,117.93,297.1,Single-ply,SBD,M
Boys,51.71,3,CJ Leos,Sunnyvale,51.26,90.72,56.7,111.13,258.55,Single-ply,SBD,M
Boys,55.79,1,Jesus Barrientos,Brownsboro,55.16,163.29,106.59,172.37,442.25,Single-ply,SBD,M
Boys,55.79,2,Chandler Prnka,Malakoff,52.16,147.42,79.38,154.22,381.02,Single-ply,SBD,M
Boys,55.79,3,Dylan Slyter,Sunnyvale,54.88,138.35,65.77,151.95,356.07,Single-ply,SBD,M
Boys,55.79,4,Nathaniel Hall,Athens,54.79,133.81,81.65,131.54,347,Single-ply,SBD,M
Boys,59.87,1,Aaron Goodwin,Mabank,58.06,147.42,104.33,154.22,405.97,Single-ply,SBD,M
Boys,59.87,2,Caleb Clemmons,Athens,58.97,138.35,92.99,124.74,356.07,Single-ply,SBD,M
Boys,59.87,3,Jose Lopez,Grand Saline,59.87,129.27,77.11,147.42,353.8,Single-ply,SBD,M
Boys,59.87,4,Kyle Crawford,Brownsboro,56.97,138.35,56.7,131.54,326.59,Single-ply,SBD,M
Boys,59.87,DQ,Cody Mayhugh,Grand Saline,58.51,124.74,,,,Single-ply,SBD,M
Boys,59.87,DQ,Malachi Davis,Mabank,58.51,,,,,Single-ply,SBD,M
Boys,67.13,1,Logan McCurley,Brownsboro,65.32,165.56,92.99,167.83,426.38,Single-ply,SBD,M
Boys,67.13,2,Cody Cogdill,Mabank,63.05,117.93,65.77,113.4,297.1,Single-ply,SBD,M
Boys,74.84,1,Harley Sanders,Brownsboro,73.3,217.72,167.83,199.58,585.13,Single-ply,SBD,M
Boys,74.84,2,Marcos Molina,Brownsboro,74.03,231.33,136.08,195.04,562.45,Single-ply,SBD,M
Boys,74.84,3,Christian Garcia,Emory Rains,70.76,199.58,97.52,195.04,492.15,Single-ply,SBD,M
Boys,74.84,4,Alex Cuellar,Brownsboro,73.94,183.7,106.59,183.7,474,Single-ply,SBD,M
Boys,74.84,5,Taylor Vandergriff,Brownsboro,68.04,172.37,90.72,206.38,469.47,Single-ply,SBD,M
Boys,74.84,6,Jesus Mendez,Emory Rains,72.12,183.7,97.52,188.24,469.47,Single-ply,SBD,M
Boys,74.84,7,Jordan Nguyen,Mabank,73.03,174.63,104.33,170.1,449.06,Single-ply,SBD,M
Boys,74.84,8,Johnny Pope,Brownsboro,70.03,176.9,95.25,174.63,446.79,Single-ply,SBD,M
Boys,74.84,9,Zach Jones,Brownsboro,73.48,149.69,83.91,185.97,419.57,Single-ply,SBD,M
Boys,74.84,10,Samuel Bowker,Mabank,73.94,154.22,99.79,154.22,408.23,Single-ply,SBD,M
Boys,74.84,11,Kaisen Burrows,Mabank,74.39,140.61,83.91,140.61,365.14,Single-ply,SBD,M
Boys,74.84,12,Caleb Chase,Mabank,70.31,127.01,72.57,127.01,326.59,Single-ply,SBD,M
Boys,82.1,1,Bobby Posey,Brownsboro,79.83,265.35,165.56,233.6,664.51,Single-ply,SBD,M
Boys,82.1,2,Quintarius Raibion,Brownsboro,81.74,240.4,129.27,195.04,564.72,Single-ply,SBD,M
Boys,82.1,3,Ethan Clark #2,Grand Saline,78.93,199.58,106.59,188.24,494.42,Single-ply,SBD,M
Boys,82.1,4,Michael Daudpota,Van,81.19,185.97,124.74,181.44,492.15,Single-ply,SBD,M
Boys,82.1,5,Colton Gable,Emory Rains,79.38,190.51,115.67,183.7,489.88,Single-ply,SBD,M
Boys,82.1,6,Jaiden Trevino,Malakoff,77.11,131.54,90.72,151.95,374.21,Single-ply,SBD,M
Boys,82.1,DQ,Austin Payne,Sunnyvale,81.65,181.44,,,,Single-ply,SBD,M
Boys,89.81,1,Christian Tristan,Brownsboro,86.45,210.92,124.74,190.51,526.17,Single-ply,SBD,M
Boys,89.81,2,Brandon Holland,Grand Saline,83.01,213.19,108.86,201.85,523.9,Single-ply,SBD,M
Boys,89.81,3,Garrett Lander,Mabank,87.54,190.51,108.86,222.26,521.63,Single-ply,SBD,M
Boys,89.81,4,Klayton House,Athens,89.36,192.78,127.01,185.97,505.76,Single-ply,SBD,M
Boys,89.81,5,Mauricio Herrera,Van,86.18,195.04,127.01,181.44,503.49,Single-ply,SBD,M
Boys,89.81,6,Angel Martinez,Mabank,87.54,190.51,127.01,183.7,501.22,Single-ply,SBD,M
Boys,89.81,7,Adrian Cortes,Van,86,185.97,99.79,179.17,464.93,Single-ply,SBD,M
Boys,89.81,8,Roberto Rojo,Brownsboro,85.64,174.63,79.38,183.7,437.72,Single-ply,SBD,M
Boys,89.81,9,Hunter Guerrero,Malakoff,85.73,156.49,111.13,156.49,424.11,Single-ply,SBD,M
Boys,89.81,10,Keevie Rose,Malakoff,82.55,151.95,74.84,190.51,417.3,Single-ply,SBD,M
Boys,89.81,DQ,Darion Peace,Malakoff,85.28,,,,,Single-ply,SBD,M
Boys,89.81,DQ,TaKeenan Langley,Malakoff,86.64,183.7,,,,Single-ply,SBD,M
Boys,99.79,1,Nathan Sims,Athens,97.98,260.82,136.08,238.14,635.03,Single-ply,SBD,M
Boys,99.79,2,Noah Sissom,Brownsboro,97.07,226.8,122.47,249.48,598.74,Single-ply,SBD,M
Boys,99.79,3,Reed Deatherage,Grand Saline,94.8,226.8,117.93,213.19,557.92,Single-ply,SBD,M
Boys,99.79,4,Ashton Wright,Sunnyvale,94.8,204.12,120.2,208.65,532.97,Single-ply,SBD,M
Boys,99.79,5,Jordan Montalvo,Emory Rains,98.88,190.51,106.59,195.04,492.15,Single-ply,SBD,M
Boys,99.79,6,Javion Hornbuckle,Malakoff,93.44,195.04,97.52,195.04,487.61,Single-ply,SBD,M
Boys,99.79,7,Kannon Hurd,Malakoff,92.53,185.97,97.52,183.7,467.2,Single-ply,SBD,M
Boys,99.79,8,James Hinch,Emory Rains,96.52,161.03,124.74,151.95,437.72,Single-ply,SBD,M
Boys,99.79,9,Michael Davis #7,Mabank,90.26,176.9,90.72,167.83,435.45,Single-ply,SBD,M
Boys,109.77,1,Alex Amar,Sunnyvale,102.97,235.87,136.08,195.04,566.99,Single-ply,SBD,M
Boys,109.77,2,Dalton Barker,Emory Rains,108.41,190.51,113.4,195.04,498.95,Single-ply,SBD,M
Boys,109.77,3,Hunter Martin #4,Athens,105.23,181.44,106.59,158.76,446.79,Single-ply,SBD,M
Boys,109.77,4,Trevor Jarvis,Malakoff,100.7,158.76,95.25,170.1,424.11,Single-ply,SBD,M
Boys,109.77,5,Omar Hernandez,Van,104.78,170.1,83.91,167.83,421.84,Single-ply,SBD,M
Boys,109.77,6,Caleb Otten,Van,108.5,145.15,90.72,149.69,385.55,Single-ply,SBD,M
Boys,109.77,DQ,Beau Thompson,Van,109.41,208.65,117.93,,,Single-ply,SBD,M
Boys,124.74,1,Garrett Hayes,Athens,120.66,278.96,170.1,281.23,730.28,Single-ply,SBD,M
Boys,124.74,2,Jimmy Orozco,Brownsboro,120.88,288.03,208.65,226.8,723.48,Single-ply,SBD,M
Boys,124.74,3,Lincoln Rogers,Malakoff,122.47,235.87,163.29,210.92,610.08,Single-ply,SBD,M
Boys,124.74,4,Wyatt Green,Brownsboro,117.48,226.8,127.01,219.99,573.79,Single-ply,SBD,M
Boys,124.74,5,Alex Spera,Sunnyvale,114.76,226.8,133.81,197.31,557.92,Single-ply,SBD,M
Boys,124.74,6,KeJuan Fite,Mineola,112.94,229.06,111.13,215.46,555.65,Single-ply,SBD,M
Boys,124.74,7,Anthony Hill,Athens,115.67,197.31,131.54,222.26,551.11,Single-ply,SBD,M
Boys,124.74,8,Zamir Ruiz,Malakoff,112.94,226.8,120.2,201.85,548.85,Single-ply,SBD,M
Boys,124.74,9,Ty Jacobs,Emory Rains,114.76,208.65,124.74,174.63,508.02,Single-ply,SBD,M
Boys,124.74,10,Carson McCoy,Van,122.92,197.31,111.13,170.1,478.54,Single-ply,SBD,M
Boys,124.74,11,Michael Black,Van,120.2,188.24,99.79,161.03,449.06,Single-ply,SBD,M
Boys,124.74,12,Billy Metzger,Sunnyvale,120.66,165.56,106.59,161.03,433.18,Single-ply,SBD,M
Boys,124.74+,1,Marcus Alexander,Sunnyvale,141.52,272.16,156.49,272.16,700.8,Single-ply,SBD,M
Boys,124.74+,2,Jobin Chirayil,Sunnyvale,140.61,249.48,165.56,210.92,625.96,Single-ply,SBD,M
Boys,,NS,Kobe Martinez,Mineola,,,,,,Single-ply,SBD,M
Boys,,NS,Sam Bartis,Sunnyvale,,,,,,Single-ply,SBD,M
Boys,,NS,Tripp McCada,Sunnyvale,,,,,,Single-ply,SBD,M
Boys,,NS,Briten Taylor,Mabank,,,,,,Single-ply,SBD,M
Boys,,NS,Hayden Buchanan,Emory Rains,,,,,,Single-ply,SBD,M
Boys,,NS,Carl Thurmond,Emory Rains,,,,,,Single-ply,SBD,M
Boys,,NS,Donavon Throneberry,Emory Rains,,,,,,Single-ply,SBD,M
Boys,,NS,Julian Gonzales,Malakoff,,,,,,Single-ply,SBD,M
